<?xml version="1.0" encoding="UTF-8" standalone="no"?>
<!-- Created with Inkscape (http://www.inkscape.org/) -->

<svg
   xmlns:dc="http://purl.org/dc/elements/1.1/"
   xmlns:cc="http://creativecommons.org/ns#"
   xmlns:rdf="http://www.w3.org/1999/02/22-rdf-syntax-ns#"
   xmlns:svg="http://www.w3.org/2000/svg"
   xmlns="http://www.w3.org/2000/svg"
   xmlns:sodipodi="http://sodipodi.sourceforge.net/DTD/sodipodi-0.dtd"
   xmlns:inkscape="http://www.inkscape.org/namespaces/inkscape"
   width="744.09448819"
   height="1052.3622047"
   id="svg2"
   version="1.1"
   inkscape:version="0.48.3.1 r9886"
   inkscape:export-filename="/home/kuduk/Documenti/lavoro/ulss20/icone/pc-intervento.png"
   inkscape:export-xdpi="35"
   inkscape:export-ydpi="35"
   sodipodi:docname="pc-intervento.svg">
  <defs
     id="defs4" />
  <sodipodi:namedview
     id="base"
     pagecolor="#ffffff"
     bordercolor="#666666"
     borderopacity="1.0"
     inkscape:pageopacity="0.0"
     inkscape:pageshadow="2"
     inkscape:zoom="0.7"
     inkscape:cx="-10.19691"
     inkscape:cy="755.2772"
     inkscape:document-units="px"
     inkscape:current-layer="layer1"
     showgrid="false"
     inkscape:window-width="1280"
     inkscape:window-height="776"
     inkscape:window-x="0"
     inkscape:window-y="24"
     inkscape:window-maximized="1" />
  <metadata
     id="metadata7">
    <rdf:RDF>
      <cc:Work
         rdf:about="">
        <dc:format>image/svg+xml</dc:format>
        <dc:type
           rdf:resource="http://purl.org/dc/dcmitype/StillImage" />
        <dc:title />
      </cc:Work>
    </rdf:RDF>
  </metadata>
  <g
     inkscape:label="Livello 1"
     inkscape:groupmode="layer"
     id="layer1">
    <rect
       style="fill:#000000;fill-opacity:0;stroke:none"
       id="rect2985"
       width="380"
       height="264.28571"
       x="95.714287"
       y="112.36218"
       ry="45.714287" />
    <path
       style="fill:#0073ef;fill-opacity:1;stroke:none"
       d="m 177.85937,110.9375 c -25.32571,0 -45.71875,20.39304 -45.71875,45.71875 l 0,180 c 0,25.32571 20.39304,45.71875 45.71875,45.71875 l 204.28125,0 c 25.32571,0 45.71875,-20.39304 45.71875,-45.71875 l 0,-180 c 0,-25.32571 -20.39304,-45.71875 -45.71875,-45.71875 l -204.28125,0 z m 17.1875,22.84375 169.875,0 c 21.06033,0 38.03125,16.97092 38.03125,38.03125 l 0,149.6875 c 0,21.06033 -16.97092,38 -38.03125,38 l -169.875,0 c -21.06033,0 -38,-16.93967 -38,-38 l 0,-149.6875 c 0,-21.06033 16.93967,-38.03125 38,-38.03125 z"
       id="rect3755"
       inkscape:connector-curvature="0" />
    <path
       style="fill:#0073ef;fill-opacity:1;stroke:none"
       d="M 110.875 400.9375 C 89.814669 400.9375 72.84375 417.87717 72.84375 438.9375 L 72.84375 485.78125 C 72.84375 506.84158 89.814669 523.78125 110.875 523.78125 L 449.125 523.78125 C 470.18533 523.78125 487.15625 506.84158 487.15625 485.78125 L 487.15625 438.9375 C 487.15625 417.87717 470.18533 400.9375 449.125 400.9375 L 110.875 400.9375 z M 127.15625 448.0625 C 135.04603 448.0625 141.4375 454.48522 141.4375 462.375 C 141.4375 470.26478 135.04603 476.65625 127.15625 476.65625 C 119.26647 476.65625 112.84375 470.26478 112.84375 462.375 C 112.84375 454.48522 119.26647 448.0625 127.15625 448.0625 z M 337.84375 450.21875 L 435 450.21875 C 441.72714 450.21875 447.15625 455.64786 447.15625 462.375 C 447.15625 469.10214 441.72714 474.5 435 474.5 L 337.84375 474.5 C 331.11661 474.5 325.71875 469.10214 325.71875 462.375 C 325.71875 455.64786 331.11661 450.21875 337.84375 450.21875 z "
       id="rect3762" />
    <g
       id="g4406"
       transform="matrix(1.1584025,-0.72850042,0.82784579,1.0193888,-176.749,-40.234096)"
       style="fill:#80b3ff;fill-opacity:1">
      <rect
         ry="18.182745"
         y="439.56195"
         x="75.714249"
         height="255.7317"
         width="50"
         id="rect4383"
         style="fill:#80b3ff;fill-opacity:1;stroke:none" />
      <path
         sodipodi:nodetypes="csssccccccccc"
         inkscape:connector-curvature="0"
         id="path4389"
         d="m 84.03125,343.0625 c -22.51702,9.55996 -38.3125,31.8737 -38.3125,57.875 0,34.71504 28.15996,62.84375 62.875,62.84375 34.71504,0 62.84375,-28.12871 62.84375,-62.84375 0,-17.25749 -6.96198,-32.89424 -18.21875,-44.25 l -5.46875,21.90625 -9.84375,39.5 -0.375,-0.0937 -39.09375,10.90625 -29.03125,-28.46875 1,-3.875 0.5,-2.03125 z"
         style="fill:#80b3ff;fill-opacity:1;stroke:none" />
    </g>
  </g>
</svg>
