<?xml version="1.0" encoding="UTF-8" standalone="no"?>
<!-- Created with Inkscape (http://www.inkscape.org/) -->

<svg
   xmlns:dc="http://purl.org/dc/elements/1.1/"
   xmlns:cc="http://creativecommons.org/ns#"
   xmlns:rdf="http://www.w3.org/1999/02/22-rdf-syntax-ns#"
   xmlns:svg="http://www.w3.org/2000/svg"
   xmlns="http://www.w3.org/2000/svg"
   xmlns:sodipodi="http://sodipodi.sourceforge.net/DTD/sodipodi-0.dtd"
   xmlns:inkscape="http://www.inkscape.org/namespaces/inkscape"
   width="744.09448819"
   height="1052.3622047"
   id="svg3789"
   version="1.1"
   inkscape:version="0.48.3.1 r9886"
   sodipodi:docname="stampante.svg">
  <defs
     id="defs3791" />
  <sodipodi:namedview
     id="base"
     pagecolor="#ffffff"
     bordercolor="#666666"
     borderopacity="1.0"
     inkscape:pageopacity="0.0"
     inkscape:pageshadow="2"
     inkscape:zoom="0.98994949"
     inkscape:cx="76.870309"
     inkscape:cy="870.3724"
     inkscape:document-units="px"
     inkscape:current-layer="layer1"
     showgrid="false"
     inkscape:window-width="1280"
     inkscape:window-height="776"
     inkscape:window-x="0"
     inkscape:window-y="24"
     inkscape:window-maximized="1"
     showguides="true"
     inkscape:guide-bbox="true" />
  <metadata
     id="metadata3794">
    <rdf:RDF>
      <cc:Work
         rdf:about="">
        <dc:format>image/svg+xml</dc:format>
        <dc:type
           rdf:resource="http://purl.org/dc/dcmitype/StillImage" />
        <dc:title></dc:title>
      </cc:Work>
    </rdf:RDF>
  </metadata>
  <g
     inkscape:label="Livello 1"
     inkscape:groupmode="layer"
     id="layer1">
    <g
       id="g4410"
       style="fill:#0073ea;fill-opacity:1">
      <path
         inkscape:export-ydpi="35"
         inkscape:export-xdpi="35"
         inkscape:export-filename="/home/kuduk/Documenti/lavoro/ulss20/icone/stampante.png"
         inkscape:connector-curvature="0"
         id="rect4309"
         d="m 134.53155,101.65179 -54.288248,50.28125 0,69 140.013398,0 0,-119.28125 -85.72515,0 z m -1.62289,10.71875 77.16573,0 0,97.84375 -119.648772,0 0,-57.125 42.483042,0 0,-40.71875 z"
         style="fill:#0073ea;fill-opacity:1;stroke:none" />
      <path
         inkscape:export-ydpi="35"
         inkscape:export-xdpi="35"
         inkscape:export-filename="/home/kuduk/Documenti/lavoro/ulss20/icone/stampante.png"
         id="rect3797"
         d="M 49.875 209.90625 C 37.916097 209.90625 28.28125 219.50985 28.28125 231.46875 L 28.28125 275.625 C 28.28125 287.5839 37.916097 297.21875 49.875 297.21875 L 250.625 297.21875 C 262.5839 297.21875 272.21875 287.5839 272.21875 275.625 L 272.21875 231.46875 C 272.21875 219.50985 262.5839 209.90625 250.625 209.90625 L 49.875 209.90625 z M 53.71875 225.9375 L 99.84375 225.9375 C 103.09694 225.9375 105.71875 228.55931 105.71875 231.8125 L 105.71875 232.21875 C 105.71875 235.47194 103.09694 238.0625 99.84375 238.0625 L 53.71875 238.0625 C 50.465561 238.0625 47.84375 235.47194 47.84375 232.21875 L 47.84375 231.8125 C 47.84375 228.55931 50.465561 225.9375 53.71875 225.9375 z "
         style="fill:#0073ea;fill-opacity:1;stroke:none" />
    </g>
    <g
       id="g4406"
       transform="matrix(0.55214712,-0.3472363,0.3945888,0.48588689,-63.706606,25.846006)"
       style="fill:#80b3ff;fill-opacity:1">
      <rect
         ry="18.182745"
         y="439.56195"
         x="75.714249"
         height="255.7317"
         width="50"
         id="rect4383"
         style="fill:#80b3ff;fill-opacity:1;stroke:none" />
      <path
         sodipodi:nodetypes="csssccccccccc"
         inkscape:connector-curvature="0"
         id="path4389"
         d="m 84.03125,343.0625 c -22.51702,9.55996 -38.3125,31.8737 -38.3125,57.875 0,34.71504 28.15996,62.84375 62.875,62.84375 34.71504,0 62.84375,-28.12871 62.84375,-62.84375 0,-17.25749 -6.96198,-32.89424 -18.21875,-44.25 l -5.46875,21.90625 -9.84375,39.5 -0.375,-0.0937 -39.09375,10.90625 -29.03125,-28.46875 1,-3.875 0.5,-2.03125 z"
         style="fill:#80b3ff;fill-opacity:1;stroke:none" />
    </g>
  </g>
</svg>
