107;index.php?gruppo=admin&act=ric_file;Files Ricevuti;"1;5;7;";Visualizza files ricevuti;Files Ricevuti;admin;ric_file;form_ricfile.php;Amministrazione;18;0
108;index.php?gruppo=admin&act=appuntamenti;Appuntamenti;"1;5;7;";Richieste Appuntamenti;Richiesta Appuntamenti;admin;appuntamenti;form_appuntamenti.php;Amministrazione;19;0
109;index.php?gruppo=admin&act=posta;E-mail;"1;5;7;";Vai casella Posta;Leggi Posta;admin;posta;form_posta.php;admin;20;0
110;index.php?gruppo=admin&act=appuntamenti_rc&richiesta=si;Rc Appunt.;"1;";elenco richieste dal sito pubblico;Ricieste pubbliche;admin;appuntamenti_rc;form_appuntamenti_rc.php;appuntamento;21;0
